Topic Modeling and Sentiment Analysis of Reddit Posts About Depression
…
lda_model <- LDA(dtm, k = 5, control = list(seed = 1234))

lda_topics <- tidy(lda_model, matrix = "beta")

top_terms <- lda_topics %>%
  group_by(topic) %>%
  slice_max(order_by = beta, n = 10) %>%
  ungroup() %>%
  arrange(topic, desc(beta))

top_terms

## # A tibble: 50 × 3
##    topic term          beta
##    <int> <chr>        <dbl>
##  1     1 feel       0.0266 
##  2     1 life       0.0244 
##  3     1 depression 0.0240 
##  4     1 time       0.0162 
##  5     1 people     0.0116 
##  6     1 anymore    0.0106 
##  7     1 sleep      0.00938
##  8     1 school     0.00751
##  9     1 talk       0.00695
## 10     1 depressed  0.00692
## # ℹ 40 more rows
…
